<svg xmlns="http://www.w3.org/2000/svg" width="64" height="64" viewBox="0 0 64 64">
    <g id="prefix__Group_3821" data-name="Group 3821" transform="translate(-263 -970)">
        <rect id="prefix__Rectangle_986" width="64" height="64" data-name="Rectangle 986" rx="5" transform="translate(263 970)" style="fill:#fff"/>
        <path id="prefix__Icon_awesome-moon" d="M14.347 24.867A12.409 12.409 0 0 0 24 20.263a.583.583 0 0 0-.562-.94A9.74 9.74 0 0 1 16.8 1.288a.583.583 0 0 0-.182-1.08 12.434 12.434 0 1 0-2.272 24.659z" data-name="Icon awesome-moon" transform="translate(282.087 989.566)" style="fill:#06a0ff"/>
    </g>
</svg>
